Chapter 6 Starting With Data | Learning R for Clinical Trial Data
…
# first element in the 6th column (as a vector)
ADSL[1, 6]   

## # A tibble: 1 x 1
##   ARM    
##   <chr>  
## 1 Placebo

# first column of the data frame (as a vector)
ADSL[, 1] 

## # A tibble: 254 x 1
##    STUDYID     
##    <chr>       
##  1 CDISCPILOT01
##  2 CDISCPILOT01
##  3 CDISCPILOT01
##  4 CDISCPILOT01
##  5 CDISCPILOT01
##  6 CDISCPILOT01
##  7 CDISCPILOT01
##  8 CDISCPILOT01
##  9 CDISCPILOT01
## 10 CDISCPILOT01
## # … with 244 more rows

# first column of the data frame (as a data.frame)
ADSL[1]    

## # A tibble: 254 x 1
##    STUDYID     
##    <chr>       
##  1 CDISCPILOT01
##  2 CDISCPILOT01
##  3 CDISCPILOT01
##  4 CDISCPILOT01
##  5 CDISCPILOT01
##  6 CDISCPILOT01
##  7 CDISCPILOT01
##  8 CDISCPILOT01
##  9 CDISCPILOT01
## 10 CDISCPILOT01
## # … with 244 more rows
…
# equivalent to head_ADSL <- head(ADSL)
head_ADSL <- ADSL[1:6, ] 

: is a special function that creates numeric vectors of integers in increasing or decreasing order, test 1:10 and 10:1 for instance.

You can also exclude certain indices of a data frame using the - sign:

ADSL[, -1]          # The whole data frame, except the first column

## # A tibble: 254 x 47
##    USUBJID SUBJID SITEID SITEGR1 ARM   TRT01P TRT01PN TRT01A TRT01AN TRTSDT    
##    <chr>   <chr>  <chr>  <chr>   <chr> <chr>    <dbl> <chr>    <dbl> <date>    
##  1 01-701… 1015   701    701     Plac… Place…       0 Place…       0 2014-01-02
##  2 01-701… 1023   701    701     Plac… Place…       0 Place…       0 2012-08-05
##  3 01-701… 1028   701    701     Xano… Xanom…      81 Xanom…      81 2013-07-19
##  4 01-701… 1033   701    701     Xano… Xanom…      54 Xanom…      54 2014-03-18
##  5 01-701… 1034   701    701     Xano… Xanom…      81 Xanom…      81 2014-07-01
##  6 01-701… 1047   701    701     Plac… Place…       0 Place…       0 2013-02-12
##  7 01-701… 1097   701    701     Xano… Xanom…      54 Xanom…      54 2014-01-01
##  8 01-701… 1111   701    701     Xano… Xanom…      54 Xanom…      54 2012-09-07
##  9 01-701… 1115   701    701     Xano… Xanom…      54 Xanom…      54 2012-11-30
## 10 01-701… 1118   701    701     Plac… Place…       0 Place…       0 2014-03-12
## # … with 244 more rows, and 37 more variables: TRTEDT <date>, TRTDURD <dbl>,
## #   AVGDD <dbl>, CUMDOSE <dbl>, AGE <dbl>, AGEGR1 <chr>, AGEGR1N <dbl>,
## #   AGEU <chr>, RACE <chr>, RACEN <dbl>, SEX <chr>, ETHNIC <chr>, SAFFL <chr>,
## #   ITTFL <chr>, EFFFL <chr>, COMP8FL <chr>, COMP16FL <chr>, COMP24FL <chr>,
## #   DISCONFL <chr>, DSRAEFL <chr>, DTHFL <chr>, BMIBL <dbl>, BMIBLGR1 <chr>,
## #   HEIGHTBL <dbl>, WEIGHTBL <dbl>, EDUCLVL <dbl>, DISONDT <date>,
## #   DURDIS <dbl>, DURDSGR1 <chr>, VISIT1DT <date>, RFSTDTC <chr>,
## #   RFENDTC <chr>, VISNUMEN <dbl>, RFENDT <date>, DCDECOD <chr>, DCSREAS <chr>,
## #   MMSETOT <dbl>
…
Data frames can be subset by calling indices (as shown previously), but also by calling their column names directly:

ADSL["ARM"]       # Result is a data.frame

## # A tibble: 254 x 1
##    ARM                 
##    <chr>               
##  1 Placebo             
##  2 Placebo             
##  3 Xanomeline High Dose
##  4 Xanomeline Low Dose 
##  5 Xanomeline High Dose
##  6 Placebo             
##  7 Xanomeline Low Dose 
##  8 Xanomeline Low Dose 
##  9 Xanomeline Low Dose 
## 10 Placebo             
## # … with 244 more rows

ADSL[, "ARM"]     # Result is a vector

## # A tibble: 254 x 1
##    ARM                 
##    <chr>               
##  1 Placebo             
##  2 Placebo             
##  3 Xanomeline High Dose
##  4 Xanomeline Low Dose 
##  5 Xanomeline High Dose
##  6 Placebo             
##  7 Xanomeline Low Dose 
##  8 Xanomeline Low Dose 
##  9 Xanomeline Low Dose 
## 10 Placebo             
## # … with 244 more rows
…
